#start

#generationNo: 0
Chromosome 00111111110000100000001110000010 01000000011001000000010010000000 
Value 1.7668
Chromosome 11000000100000110011001011011010 01000000000101111010010011011000 
Value 2.11178
Chromosome 01000000001000111001000001001110 01000000101110110000100101100001 
Value 2.81133
Chromosome 10111111010011001100011101001110 01000000000111101110110001000101 
Value 2.90293
Chromosome 00111110101001111101010101010100 01000001000010000010001100111111 
Value 3.43703
Chromosome 00111111111010110111110100110101 01000000010101110101111110110111 
Value 3.571
Chromosome 11000000010111100100000100101100 01000001000010110100101101111101 
Value 3.64128
Chromosome 10111111111101010111111100101110 01000001000010100111111001010010 
Value 4.78308
Chromosome 11000000011111000111001111101100 01000000110001000011010111011010 
Value 4.88239
Chromosome 01000000001010011010011101000110 01000001000000101100001110111000 
Value 5.2866

#generationNo: 1
Chromosome 11000000011011000111001111101100 01000000110001000011110111011010 
Value 3.52049
Chromosome 00111111111010110111110100110100 01000000010101110101111110111010 
Value 3.571
Chromosome 10111111111101010110111100101110 01000001000000100111111001010010 
Value 4.64092
Chromosome 10111111111101010111110100101110 01000001000010100111111001010010 
Value 4.78134
Chromosome 11000000011111000111001101101101 01000000110001010011010111010111 
Value 4.89025
Chromosome 11000000011111000110001111101100 01000000110101000011010010011010 
Value 4.99811
Chromosome 01000000001010011010011101000110 01000001000000101100001110111000 
Value 5.2866
Chromosome 01000000001010011000101101000110 01000001000000101100001110111000 
Value 5.29433
Chromosome 01000000001010011000001101000110 01000001000010001100001111111100 
Value 5.37879
Chromosome 01000000001010011010011101000110 01000001000101101100001110111000 
Value 5.55298

#generationNo: 2
Chromosome 11000000001010011000101101000110 01000000100000101100000110111000 
Value 2.33658
Chromosome 01000000011111000111101101101001 01000001010001010011010111010111 
Value 4.125
Chromosome 11000000011111000111001101101101 01000000110001010011000111010111 
Value 4.89012
Chromosome 11000000011111000110001111101100 01000000110101000011010010011010 
Value 4.99811
Chromosome 11000000011111000110001111101100 01000000110101100011010010011010 
Value 5.01366
Chromosome 01000000011010011011011111000110 01000001000000100000001110111000 
Value 5.35272
Chromosome 01000000001010011010011101000110 01000001000101101100001110111001 
Value 5.55298
Chromosome 01000000001010011000101001000110 01000001000110101100001100111000 
Value 5.60802
Chromosome 01000000011010011010011101000110 01000001000101101101001110111001 
Value 5.61741
Chromosome 01000000001010011000101111000100 01000001001000101100001110110000 
Value 5.70266

#generationNo: 3
Chromosome 01000000000010011010011101000110 01000001000000100000000110111001 
Value 3.27306
Chromosome 01000000001000011010011101000111 01000001000101101100001110111001 
Value 3.75825
Chromosome 01000000011010001010011111000110 01000001000000100000001110111000 
Value 5.32349
Chromosome 01000000001010010010011101000110 01000001000101101100001110011001 
Value 5.55618
Chromosome 01000000011010011010011111000110 01000001000100101100101111111000 
Value 5.56948
Chromosome 01000000001010011000101001000110 01000001000110101101001100111000 
Value 5.60878
Chromosome 01000000001010011100101111000100 01000001001000101100100010110000 
Value 5.68711
Chromosome 01000000001010011000101111000100 01000001001000101000000110111000 
Value 5.69967
Chromosome 01000000001010011000101110000100 01000001001000101100001100100000 
Value 5.70266
Chromosome 01000000001010011001101001000110 01000001001110101100001100111000 
Value 5.96201

#generationNo: 4
Chromosome 01000000001010011000101110100100 01000001000110100100001100100000 
Value 5.60174
Chromosome 01000000001010011001101001000011 01000001000110101101001100111000 
Value 5.60602
Chromosome 01000000001010011000101001000110 01000001000110101101001100111001 
Value 5.60878
Chromosome 01000000001010011000101000000110 01000001000110101111001100111000 
Value 5.61033
Chromosome 01000000001010011100111111000100 01000001001000101000100010110000 
Value 5.68269
Chromosome 01000000001010011000101111100100 01000001001000101000000110111000 
Value 5.69965
Chromosome 01000000001010011000101111000100 01000001001000101010000100111000 
Value 5.70109
Chromosome 01000000001010011000101110000000 01000001001000101100001110100000 
Value 5.70269
Chromosome 01000000001010010001101001000111 01000001001110101100011100111000 
Value 5.94999
Chromosome 01000000001010011100101001000110 01000001011000101101001100111000 
Value 6.32742

#generationNo: 5
Chromosome 01000000001010001000101001000010 01000001000110001101001100111001 
Value 5.50304
Chromosome 01000000001010011000101100101100 01000001000110100100001100100000 
Value 5.60181
Chromosome 01000000001010011100101000000110 01000001000110111011101100111100 
Value 5.60335
Chromosome 01000000001010010010100000000110 01000001000110101111001101111001 
Value 5.60658
Chromosome 01000000001010011000001000000110 01000001000110101111001100111000 
Value 5.61134
Chromosome 01000000011010011000101100100100 01000001000110100100001101100000 
Value 5.66292
Chromosome 01000000001010011000101110000000 01000001001000101100001110100000 
Value 5.70269
Chromosome 01000000001010000001100011001111 01000001001110101100011100111000 
Value 5.75097
Chromosome 01000000001010010000101001000111 01000001001110001100011100111000 
Value 5.9241
Chromosome 01000000001010011100001001000110 01000001011011101101001100111000 
Value 6.42986

#generationNo: 6
Chromosome 01000000011110011000101110100100 01000001000111100100001101100000 
Value 4.65347
Chromosome 01000000001110010010100000000110 01000001000110001101001000111000 
Value 4.71029
Chromosome 01000000001010011000101100101100 01000001000110100100001100000000 
Value 5.60181
Chromosome 01000000001010011000001110000000 01000001001000101100001110100000 
Value 5.7036
Chromosome 01000000001010010000101101000111 01000001001010001101011101111000 
Value 5.75665
Chromosome 01000000001010010001101011000011 01000001001010001101011100110000 
Value 5.76167
Chromosome 01000000001010010101101001000111 01000001001110001101011100111000 
Value 5.94384
Chromosome 01000000001010011100001001010110 01000001010011001101001101111010 
Value 6.13157
Chromosome 01000000001010011100101001010110 01000001011011101101001100111010 
Value 6.42786
Chromosome 01000000001010011100001000000110 01000001011011101101001100101000 
Value 6.42992

#generationNo: 7
Chromosome 01000000011100011000101110100100 01000001000111100010001101100000 
Value 4.06539
Chromosome 01000000001010010000101101000111 01000001001011001101011101111010 
Value 5.80003
Chromosome 01000000001010000101110001000111 01000001001110101101011110111000 
Value 5.82478
Chromosome 01000000001010011100001001010110 01000001010011001001100101111010 
Value 6.12943
Chromosome 01000000001010011100001011010110 01000001010011001101001101011010 
Value 6.13143
Chromosome 01000000001010011100001001010110 01000001010011001101001101011010 
Value 6.13157
Chromosome 01000000001010011110000000000110 01000001011011101111001101101000 
Value 6.42234
Chromosome 01000000001010011100101001010111 01000001011011101101001100111010 
Value 6.42786
Chromosome 01000000001010011100100001010110 01000001011011111101001100111010 
Value 6.43653
Chromosome 01000000001010011100110001010110 01000001011110101101001100111010 
Value 6.5231

#generationNo: 8
Chromosome 01000000000010001100110001011110 01000001011110101001001100111010 
Value 4.58243
Chromosome 01000000001111011110000000010110 01000001011011111101001100111010 
Value 4.61233
Chromosome 01000000001010000101100001000111 01000001001110101101011111111000 
Value 5.82084
Chromosome 01000000001010011101110001011110 01000001001110101101001100111010 
Value 5.94545
Chromosome 01000000001010011110101001010111 01000001001111101001001100111010 
Value 5.97824
Chromosome 01000000011010000111110001000111 01000001010011100101011110111000 
Value 6.07382
Chromosome 01000000001010011100001001010110 01000001010011001001100101111010 
Value 6.12943
Chromosome 01000000001010011100001001010110 01000001010011001101001101111010 
Value 6.13157
Chromosome 01000000001010011110000000000100 01000001011011101111001101101000 
Value 6.42235
Chromosome 01000000001010011100101001010111 01000001011011101101001100111010 
Value 6.42786

#generationNo: 9
Chromosome 01000000001011000101100001000110 01000001001110101101011111111000 
Value 5.11727
Chromosome 01000000001010000101100001000111 01000001001110100101011111111000 
Value 5.81594
Chromosome 01000000001010111100101001010111 01000001011011101101001100111010 
Value 5.87391
Chromosome 01000000001010000111110001010111 01000001010011000101011101111000 
Value 6.0202
Chromosome 01000000011010011100000001000110 01000001001111101001000101111010 
Value 6.03435
Chromosome 01000000001010110110000000000100 01000001011011101111001101111000 
Value 6.04802
Chromosome 01000000001010011110001001010111 01000001010011001101001000011010 
Value 6.12124
Chromosome 01000000001010011100001001010110 01000001010011001001100101111010 
Value 6.12943
Chromosome 01000000001010011100011001010110 01000001010011001101001101111010 
Value 6.13049
Chromosome 01000000011010011000001001010110 01000001010011101001100101111010 
Value 6.19309

#end
Maximum/Minimum chromosome 01000000001010011100110001010110 01000001011110101101001100111010 
Maximum/Minimum value 6.5231